Ausgabedatei Z88O2.TXT: Verschiebungen, erzeugt mit Z88R V14OS
                        **************
Lastfall: 1
Knoten         U(1)              U(2)              U(3)              U(4)              U(5)              U(6)

     1    -5.7870106E-02    -4.1718958E-02    -8.9319164E-01
     2    +5.8063670E-02    +4.0142881E-02    -8.9000316E-01
     3    -5.4499543E-02    -4.1957019E-02    -8.1871515E-01
     4    +5.4412300E-02    +4.1412925E-02    -8.1781131E-01
     5    -4.9859785E-02    -4.3542784E-02    -7.7702023E-01
     6    +4.9671832E-02    +4.3121223E-02    -7.7571233E-01
     7    -4.6155576E-02    -4.6155589E-02    -7.6217458E-01
     8    +4.5880827E-02    +4.5880840E-02    -7.6100408E-01
     9    -5.6951435E-02    -3.8560365E-02    -7.8607290E-01
    10    +5.7673614E-02    +3.8158255E-02    -7.8651284E-01
    11    -5.3217395E-02    -3.9638759E-02    -7.0660251E-01
    12    +5.3330301E-02    +3.9217793E-02    -7.0665430E-01
    13    -4.8099530E-02    -4.1413724E-02    -6.6239684E-01
    14    +4.8166844E-02    +4.1212098E-02    -6.6254389E-01
    15    -4.4227703E-02    -4.4227715E-02    -6.4717153E-01
    16    +4.4163137E-02    +4.4163149E-02    -6.4729135E-01
    17    -5.5270761E-02    -3.3548885E-02    -6.6832325E-01
    18    +5.5639008E-02    +3.3391832E-02    -6.6829752E-01
    19    -5.0500114E-02    -3.4933494E-02    -5.8487251E-01
    20    +5.0565626E-02    +3.4771836E-02    -5.8485021E-01
    21    -4.4932475E-02    -3.7217372E-02    -5.3984914E-01
    22    +4.4875514E-02    +3.7033596E-02    -5.3981564E-01
    23    -4.0595494E-02    -4.0595503E-02    -5.2451524E-01
    24    +4.0478337E-02    +4.0478347E-02    -5.2448352E-01
    25    -5.2014767E-02    -2.8092257E-02    -5.3921121E-01
    26    +5.2259047E-02    +2.8040589E-02    -5.3923684E-01
    27    -4.5889045E-02    -2.9632034E-02    -4.5685813E-01
    28    +4.5947337E-02    +2.9575829E-02    -4.5685818E-01
    29    -3.9802581E-02    -3.1896068E-02    -4.1367046E-01
    30    +3.9738455E-02    +3.1795741E-02    -4.1366649E-01
    31    -3.5289600E-02    -3.5289606E-02    -3.9918438E-01
    32    +3.5183525E-02    +3.5183531E-02    -3.9917935E-01
    33    -4.6870459E-02    -2.2028488E-02    -4.0311849E-01
    34    +4.7018178E-02    +2.2021343E-02    -4.0312670E-01
    35    -3.9608153E-02    -2.3593402E-02    -3.2819319E-01
    36    +3.9647790E-02    +2.3586345E-02    -3.2819372E-01
    37    -3.3243176E-02    -2.5642116E-02    -2.9057102E-01
    38    +3.3186061E-02    +2.5589695E-02    -2.9056666E-01
    39    -2.8799283E-02    -2.8799287E-02    -2.7822663E-01
    40    +2.8716527E-02    +2.8716531E-02    -2.7822091E-01
    41    -3.9609610E-02    -1.5535852E-02    -2.6676571E-01
    42    +3.9696701E-02    +1.5546645E-02    -2.6677151E-01
    43    -3.1713780E-02    -1.7055056E-02    -2.0666772E-01
    44    +3.1738588E-02    +1.7067857E-02    -2.0666887E-01
    45    -2.5615790E-02    -1.8821299E-02    -1.7847587E-01
    46    +2.5573487E-02    +1.8798417E-02    -1.7847388E-01
    47    -2.1585168E-02    -2.1585171E-02    -1.6950916E-01
    48    +2.1529067E-02    +2.1529069E-02    -1.6950599E-01
    49    -2.9844702E-02    -9.0322919E-03    -1.4092673E-01
    50    +2.9890250E-02    +9.0462374E-03    -1.4092987E-01
    51    -2.2314544E-02    -1.0434358E-02    -1.0263847E-01
    52    +2.2328204E-02    +1.0452109E-02    -1.0263936E-01
    53    -1.7297362E-02    -1.1947155E-02    -8.6374341E-02
    54    +1.7269713E-02    +1.1941114E-02    -8.6373213E-02
    55    -1.4130293E-02    -1.4130294E-02    -8.1397444E-02
    56    +1.4097281E-02    +1.4097283E-02    -8.1395459E-02
    57    -1.6902824E-02    -3.0207735E-03    -4.2896578E-02
    58    +1.6920092E-02    +3.0288585E-03    -4.2898713E-02
    59    -1.1608658E-02    -4.6206393E-03    -2.8945338E-02
    60    +1.1613984E-02    +4.6337944E-03    -2.8946271E-02
    61    -8.6446818E-03    -5.5559934E-03    -2.3684516E-02
    62    +8.6308423E-03    +5.5579413E-03    -2.3683504E-02
    63    -6.8567536E-03    -6.8567540E-03    -2.2198421E-02
    64    +6.8427837E-03    +6.8427841E-03    -2.2196540E-02
    65    +0.0000000E+00    +0.0000000E+00    +0.0000000E+00
    66    +0.0000000E+00    +0.0000000E+00    +0.0000000E+00
    67    +0.0000000E+00    +0.0000000E+00    +0.0000000E+00
    68    +0.0000000E+00    +0.0000000E+00    +0.0000000E+00
    69    +0.0000000E+00    +0.0000000E+00    +0.0000000E+00
    70    +0.0000000E+00    +0.0000000E+00    +0.0000000E+00
    71    +0.0000000E+00    +0.0000000E+00    +0.0000000E+00
    72    +0.0000000E+00    +0.0000000E+00    +0.0000000E+00
    73    -4.3542767E-02    -4.9859794E-02    -7.7702019E-01
    74    +4.3121206E-02    +4.9671841E-02    -7.7571228E-01
    75    -4.1957000E-02    -5.4499547E-02    -8.1871506E-01
    76    +4.1412906E-02    +5.4412305E-02    -8.1781122E-01
    77    -4.1718938E-02    -5.7870111E-02    -8.9319155E-01
    78    +4.0142861E-02    +5.8063675E-02    -8.9000308E-01
    79    -4.1413709E-02    -4.8099538E-02    -6.6239679E-01
    80    +4.1212083E-02    +4.8166851E-02    -6.6254385E-01
    81    -3.9638741E-02    -5.3217399E-02    -7.0660242E-01
    82    +3.9217776E-02    +5.3330304E-02    -7.0665422E-01
    83    -3.8560347E-02    -5.6951441E-02    -7.8607283E-01
    84    +3.8158236E-02    +5.7673619E-02    -7.8651277E-01
    85    -3.7217359E-02    -4.4932480E-02    -5.3984910E-01
    86    +3.7033583E-02    +4.4875519E-02    -5.3981560E-01
    87    -3.4933479E-02    -5.0500116E-02    -5.8487242E-01
    88    +3.4771821E-02    +5.0565628E-02    -5.8485013E-01
    89    -3.3548869E-02    -5.5270765E-02    -6.6832319E-01
    90    +3.3391816E-02    +5.5639011E-02    -6.6829745E-01
    91    -3.1896058E-02    -3.9802584E-02    -4.1367043E-01
    92    +3.1795730E-02    +3.9738458E-02    -4.1366646E-01
    93    -2.9632021E-02    -4.5889050E-02    -4.5685818E-01
    94    +2.9575816E-02    +4.5947342E-02    -4.5685823E-01
    95    -2.8092242E-02    -5.2014767E-02    -5.3921115E-01
    96    +2.8040574E-02    +5.2259047E-02    -5.3923678E-01
    97    -2.5642109E-02    -3.3243178E-02    -2.9057100E-01
    98    +2.5589688E-02    +3.3186062E-02    -2.9056664E-01
    99    -2.3593393E-02    -3.9608152E-02    -3.2819313E-01
   100    +2.3586336E-02    +3.9647788E-02    -3.2819366E-01
   101    -2.2028478E-02    -4.6870458E-02    -4.0311846E-01
   102    +2.2021333E-02    +4.7018178E-02    -4.0312667E-01
   103    -1.8821294E-02    -2.5615790E-02    -1.7847585E-01
   104    +1.8798412E-02    +2.5573487E-02    -1.7847386E-01
   105    -1.7055049E-02    -3.1713776E-02    -2.0666767E-01
   106    +1.7067850E-02    +3.1738585E-02    -2.0666882E-01
   107    -1.5535846E-02    -3.9609611E-02    -2.6676569E-01
   108    +1.5546638E-02    +3.9696701E-02    -2.6677149E-01
   109    -1.1947152E-02    -1.7297361E-02    -8.6374330E-02
   110    +1.1941111E-02    +1.7269712E-02    -8.6373202E-02
   111    -1.0434354E-02    -2.2314540E-02    -1.0263845E-01
   112    +1.0452104E-02    +2.2328200E-02    -1.0263933E-01
   113    -9.0322878E-03    -2.9844702E-02    -1.4092672E-01
   114    +9.0462333E-03    +2.9890250E-02    -1.4092986E-01
   115    -5.5559922E-03    -8.6446809E-03    -2.3684512E-02
   116    +5.5579400E-03    +8.6308415E-03    -2.3683501E-02
   117    -4.6206371E-03    -1.1608655E-02    -2.8945329E-02
   118    +4.6337922E-03    +1.1613981E-02    -2.8946262E-02
   119    -3.0207720E-03    -1.6902823E-02    -4.2896575E-02
   120    +3.0288569E-03    +1.6920091E-02    -4.2898710E-02
   121    +0.0000000E+00    +0.0000000E+00    +0.0000000E+00
   122    +0.0000000E+00    +0.0000000E+00    +0.0000000E+00
   123    +0.0000000E+00    +0.0000000E+00    +0.0000000E+00
   124    +0.0000000E+00    +0.0000000E+00    +0.0000000E+00
   125    +0.0000000E+00    +0.0000000E+00    +0.0000000E+00
   126    +0.0000000E+00    +0.0000000E+00    +0.0000000E+00
