Ausgabedatei Z88O4.TXT : Knotenkraefte, erzeugt mit Z88R V14OS
                         *************

Zunaechst die Knotenkraefte elementweise
----------------------------------------

Element # =     1     Typ = 8-K Hexaeder
Knoten       F(1)           F(2)           F(3)
    1    -2.67164E-11   +1.45519E-11   -1.00000E+03
    9    +2.64476E+02   +4.06851E+02   +2.76813E+02
   11    +5.71126E+02   +2.30498E+02   +2.53316E+02
    3    +2.72587E+02   -2.10696E+02   -4.55172E+02
    2    -1.45519E-11   +3.63798E-12   -1.45519E-11
   10    -3.26551E+02   -3.84594E+02   +4.46994E+02
   12    -5.38736E+02   -1.72232E+02   +3.42445E+02
    4    -2.42901E+02   +1.30174E+02   +1.35604E+02

Element # =     2     Typ = 8-K Hexaeder
Knoten       F(1)           F(2)           F(3)
    3    -2.72587E+02   +2.10696E+02   -5.44828E+02
   11    +4.03340E+01   +6.08656E+02   +1.58246E+02
   13    +5.64571E+02   +1.39803E+02   +2.39398E+02
    5    +3.22035E+02   -3.50174E+02   -3.76430E+02
    4    +2.42901E+02   -1.30174E+02   -1.35604E+02
   12    -5.44310E+01   -6.20001E+02   +2.35005E+02
   14    -5.78148E+02   -1.20596E+02   +3.23784E+02
    6    -2.64675E+02   +2.61790E+02   +1.00430E+02

Element # =     3     Typ = 8-K Hexaeder
Knoten       F(1)           F(2)           F(3)
    5    -3.22035E+02   +3.50174E+02   -6.23570E+02
   13    +7.91942E+01   +6.89062E+02   +2.47173E+02
   15    +6.46595E+02   +8.85077E+01   +2.78566E+02
    7    +3.52059E+02   -3.52059E+02   -5.00000E+02
    6    +2.64675E+02   -2.61790E+02   -1.00430E+02
   14    -8.77381E+01   -7.00805E+02   +3.34885E+02
   16    -6.61135E+02   -8.47038E+01   +3.63376E+02
    8    -2.71615E+02   +2.71615E+02   +1.36852E-04

Element # =     4     Typ = 8-K Hexaeder
Knoten       F(1)           F(2)           F(3)
    9    -2.64476E+02   -4.06851E+02   -2.76813E+02
   17    +6.17254E+02   +4.60732E+02   +4.70728E+02
   19    +1.03446E+03   +3.26607E+02   +2.50576E+02
   11    +4.38387E+01   -4.91901E+02   -2.88538E+02
   10    +3.26551E+02   +3.84594E+02   -4.46994E+02
   18    -6.60943E+02   -4.77772E+02   +4.41095E+02
   20    -1.04657E+03   -3.29362E+02   +2.35227E+02
   12    -5.01107E+01   +5.33952E+02   -3.85282E+02

Element # =     5     Typ = 8-K Hexaeder
Knoten       F(1)           F(2)           F(3)
   11    -6.55298E+02   -3.47252E+02   -1.23024E+02
   19    +4.72816E+02   +7.69151E+02   +2.42673E+02
   21    +1.09275E+03   +3.87637E+02   +2.14540E+02
   13    -1.44499E+01   -6.52335E+02   -2.43440E+02
   12    +6.43278E+02   +2.58281E+02   -1.92168E+02
   20    -4.56789E+02   -7.63631E+02   +2.25613E+02
   22    -1.08614E+03   -3.45128E+02   +2.00829E+02
   14    +3.83554E+00   +6.93276E+02   -3.25022E+02

Element # =     6     Typ = 8-K Hexaeder
Knoten       F(1)           F(2)           F(3)
   13    -6.29315E+02   -1.76530E+02   -2.43130E+02
   21    +5.76227E+02   +1.02862E+03   +3.25320E+02
   23    +1.15111E+03   +4.85082E+02   +2.98467E+02
   15    -7.57514E+01   -6.59351E+02   -2.78566E+02
   14    +6.62051E+02   +1.28125E+02   -3.33647E+02
   22    -5.67554E+02   -1.04386E+03   +3.10240E+02
   24    -1.16289E+03   -4.61802E+02   +2.84692E+02
   16    +4.61187E+01   +6.99720E+02   -3.63376E+02

Element # =     7     Typ = 8-K Hexaeder
Knoten       F(1)           F(2)           F(3)
   17    -6.17254E+02   -4.60732E+02   -4.70728E+02
   25    +1.15185E+03   +6.12482E+02   +4.87500E+02
   27    +1.59268E+03   +4.89564E+02   +2.77309E+02
   19    -3.43435E+02   -5.81935E+02   -3.24254E+02
   18    +6.60943E+02   +4.77772E+02   -4.41095E+02
   26    -1.18379E+03   -6.22159E+02   +4.95858E+02
   28    -1.60777E+03   -5.01141E+02   +2.80845E+02
   20    +3.46781E+02   +5.86150E+02   -3.05434E+02

Element # =     8     Typ = 8-K Hexaeder
Knoten       F(1)           F(2)           F(3)
   19    -1.16384E+03   -5.13823E+02   -1.68995E+02
   27    +9.82010E+02   +1.00585E+03   +2.09744E+02
   29    +1.63590E+03   +6.35224E+02   +1.99351E+02
   21    -5.18950E+02   -9.01428E+02   -2.58450E+02
   20    +1.15658E+03   +5.06843E+02   -1.55406E+02
   28    -9.72496E+02   -1.00515E+03   +2.11997E+02
   30    -1.62729E+03   -6.27715E+02   +2.03484E+02
   22    +5.08094E+02   +9.00203E+02   -2.41726E+02

Element # =     9     Typ = 8-K Hexaeder
Knoten       F(1)           F(2)           F(3)
   21    -1.15003E+03   -5.14827E+02   -2.81410E+02
   29    +1.10052E+03   +1.44338E+03   +2.97850E+02
   31    +1.68549E+03   +8.87669E+02   +2.66766E+02
   23    -5.49302E+02   -1.08689E+03   -2.98467E+02
   22    +1.14560E+03   +4.88786E+02   -2.69343E+02
   30    -1.08588E+03   -1.43842E+03   +2.99057E+02
   32    -1.68083E+03   -8.69973E+02   +2.70239E+02
   24    +5.34419E+02   +1.09027E+03   -2.84692E+02

Element # =    10     Typ = 8-K Hexaeder
Knoten       F(1)           F(2)           F(3)
   25    -1.15185E+03   -6.12482E+02   -4.87500E+02
   33    +1.85780E+03   +7.67363E+02   +5.21822E+02
   35    +2.31138E+03   +6.62071E+02   +2.99180E+02
   27    -8.42271E+02   -7.20330E+02   -3.25867E+02
   26    +1.18379E+03   +6.22159E+02   -4.95858E+02
   34    -1.88034E+03   -7.75275E+02   +5.21996E+02
   36    -2.32592E+03   -6.71640E+02   +2.97841E+02
   28    +8.47412E+02   +7.28134E+02   -3.31614E+02

Element # =    11     Typ = 8-K Hexaeder
Knoten       F(1)           F(2)           F(3)
   27    -1.73242E+03   -7.75080E+02   -1.61186E+02
   35    +1.59265E+03   +1.27480E+03   +2.13179E+02
   37    +2.26205E+03   +9.06754E+02   +1.92640E+02
   29    -1.05648E+03   -1.17628E+03   -2.43673E+02
   28    +1.73286E+03   +7.78158E+02   -1.61228E+02
   36    -1.58549E+03   -1.27775E+03   +2.13635E+02
   38    -2.25489E+03   -9.08202E+02   +1.91889E+02
   30    +1.04173E+03   +1.17761E+03   -2.45255E+02

Element # =    12     Typ = 8-K Hexaeder
Knoten       F(1)           F(2)           F(3)
   29    -1.67994E+03   -9.02325E+02   -2.53527E+02
   37    +1.65209E+03   +1.87754E+03   +2.83247E+02
   39    +2.24750E+03   +1.29791E+03   +2.42033E+02
   31    -1.04985E+03   -1.52331E+03   -2.66766E+02
   30    +1.67145E+03   +8.88522E+02   -2.57286E+02
   38    -1.63700E+03   -1.87048E+03   +2.81677E+02
   40    -2.23609E+03   -1.28681E+03   +2.40860E+02
   32    +1.03184E+03   +1.51896E+03   -2.70239E+02

Element # =    13     Typ = 8-K Hexaeder
Knoten       F(1)           F(2)           F(3)
   33    -1.85780E+03   -7.67363E+02   -5.21822E+02
   41    +2.81067E+03   +9.26838E+02   +5.54317E+02
   43    +3.22761E+03   +8.25048E+02   +3.21069E+02
   35    -1.51566E+03   -8.73396E+02   -3.53205E+02
   34    +1.88034E+03   +7.75275E+02   -5.21996E+02
   42    -2.82678E+03   -9.32466E+02   +5.55829E+02
   44    -3.23934E+03   -8.32432E+02   +3.20503E+02
   36    +1.52095E+03   +8.78497E+02   -3.54696E+02

Element # =    14     Typ = 8-K Hexaeder
Knoten       F(1)           F(2)           F(3)
   35    -2.38838E+03   -1.06347E+03   -1.59154E+02
   43    +2.34210E+03   +1.56143E+03   +2.24804E+02
   45    +2.96815E+03   +1.17147E+03   +1.78695E+02
   37    -1.67245E+03   -1.48476E+03   -2.46158E+02
   36    +2.39047E+03   +1.07090E+03   -1.56781E+02
   44    -2.33726E+03   -1.56494E+03   +2.26161E+02
   46    -2.96257E+03   -1.17566E+03   +1.77928E+02
   38    +1.65993E+03   +1.48503E+03   -2.45496E+02

Element # =    15     Typ = 8-K Hexaeder
Knoten       F(1)           F(2)           F(3)
   37    -2.24169E+03   -1.29953E+03   -2.29729E+02
   45    +2.22475E+03   +2.31918E+03   +2.60937E+02
   47    +2.81541E+03   +1.69611E+03   +2.09755E+02
   39    -1.56710E+03   -1.97830E+03   -2.42033E+02
   38    +2.23196E+03   +1.29365E+03   -2.28071E+02
   46    -2.21242E+03   -2.31236E+03   +2.60836E+02
   48    -2.80339E+03   -1.68917E+03   +2.09164E+02
   40    +1.55247E+03   +1.97042E+03   -2.40860E+02

Element # =    16     Typ = 8-K Hexaeder
Knoten       F(1)           F(2)           F(3)
   41    -2.81067E+03   -9.26838E+02   -5.54317E+02
   49    +4.15992E+03   +1.05335E+03   +6.02510E+02
   51    +4.40899E+03   +9.63101E+02   +3.45531E+02
   43    -2.43927E+03   -1.02156E+03   -3.91944E+02
   42    +2.82678E+03   +9.32466E+02   -5.55829E+02
   50    -4.17150E+03   -1.05749E+03   +6.03526E+02
   52    -4.41808E+03   -9.68513E+02   +3.44838E+02
   44    +2.44384E+03   +1.02549E+03   -3.94314E+02

Element # =    17     Typ = 8-K Hexaeder
Knoten       F(1)           F(2)           F(3)
   43    -3.13043E+03   -1.36491E+03   -1.53929E+02
   51    +3.23995E+03   +1.85297E+03   +2.29728E+02
   53    +3.71737E+03   +1.44038E+03   +1.66546E+02
   45    -2.39221E+03   -1.78840E+03   -2.42844E+02
   44    +3.13276E+03   +1.37187E+03   -1.52350E+02
   52    -3.23694E+03   -1.85607E+03   +2.30938E+02
   54    -3.71323E+03   -1.44430E+03   +1.65299E+02
   46    +2.38273E+03   +1.78847E+03   -2.43389E+02

Element # =    18     Typ = 8-K Hexaeder
Knoten       F(1)           F(2)           F(3)
   45    -2.80069E+03   -1.70225E+03   -1.96788E+02
   53    +2.81604E+03   +2.71149E+03   +2.29379E+02
   55    +3.33363E+03   +2.09354E+03   +1.76666E+02
   47    -2.10780E+03   -2.40372E+03   -2.09755E+02
   46    +2.79225E+03   +1.69956E+03   -1.95376E+02
   54    -2.80669E+03   -2.70590E+03   +2.29331E+02
   56    -3.32328E+03   -2.08874E+03   +1.75708E+02
   48    +2.09655E+03   +2.39601E+03   -2.09164E+02

Element # =    19     Typ = 8-K Hexaeder
Knoten       F(1)           F(2)           F(3)
   49    -4.15992E+03   -1.05335E+03   -6.02510E+02
   57    +6.12525E+03   +1.22058E+03   +6.49103E+02
   59    +5.92473E+03   +1.07446E+03   +3.90668E+02
   51    -3.72253E+03   -1.11298E+03   -4.35308E+02
   50    +4.17150E+03   +1.05749E+03   -6.03526E+02
   58    -6.13352E+03   -1.22383E+03   +6.49311E+02
   60    -5.93188E+03   -1.07842E+03   +3.89498E+02
   52    +3.72637E+03   +1.11605E+03   -4.37237E+02

Element # =    20     Typ = 8-K Hexaeder
Knoten       F(1)           F(2)           F(3)
   51    -3.92642E+03   -1.70309E+03   -1.39952E+02
   59    +4.30256E+03   +1.98544E+03   +2.24668E+02
   61    +4.44567E+03   +1.76657E+03   +1.44787E+02
   53    -3.24762E+03   -1.99545E+03   -2.29879E+02
   52    +3.92866E+03   +1.70854E+03   -1.38540E+02
   60    -4.30100E+03   -1.98806E+03   +2.25527E+02
   62    -4.44277E+03   -1.76935E+03   +1.43801E+02
   54    +3.24093E+03   +1.99540E+03   -2.30412E+02

Element # =    21     Typ = 8-K Hexaeder
Knoten       F(1)           F(2)           F(3)
   53    -3.28579E+03   -2.15642E+03   -1.66046E+02
   61    +3.48292E+03   +2.96040E+03   +1.96122E+02
   63    +3.73128E+03   +2.56266E+03   +1.44732E+02
   55    -2.71233E+03   -2.71484E+03   -1.76666E+02
   54    +3.27899E+03   +2.15479E+03   -1.64218E+02
   62    -3.47580E+03   -2.95614E+03   +1.96987E+02
   64    -3.72308E+03   -2.55867E+03   +1.44797E+02
   56    +2.70380E+03   +2.70822E+03   -1.75708E+02

Element # =    22     Typ = 8-K Hexaeder
Knoten       F(1)           F(2)           F(3)
   57    -6.12525E+03   -1.22058E+03   -6.49103E+02
   65    +8.97674E+03   +8.55461E+02   +6.60083E+02
   67    +7.77422E+03   +1.63865E+03   +4.46372E+02
   59    -5.55766E+03   -8.26170E+02   -4.60494E+02
   58    +6.13352E+03   +1.22383E+03   -6.49311E+02
   66    -8.98258E+03   -8.57069E+02   +6.64526E+02
   68    -7.77996E+03   -1.64280E+03   +4.49306E+02
   60    +5.56098E+03   +8.28682E+02   -4.61379E+02

Element # =    23     Typ = 8-K Hexaeder
Knoten       F(1)           F(2)           F(3)
   59    -4.66962E+03   -2.23373E+03   -1.54841E+02
   67    +5.59996E+03   +1.95747E+03   +2.05228E+02
   69    +5.04646E+03   +2.46553E+03   +1.55948E+02
   61    -4.29960E+03   -1.91776E+03   -2.06421E+02
   60    +4.67190E+03   +2.23781E+03   -1.53646E+02
   68    -5.59926E+03   -1.95990E+03   +2.06624E+02
   70    -5.04460E+03   -2.46745E+03   +1.54187E+02
   62    +4.29476E+03   +1.91803E+03   -2.07080E+02

Element # =    24     Typ = 8-K Hexaeder
Knoten       F(1)           F(2)           F(3)
   61    -3.62899E+03   -2.80921E+03   -1.34488E+02
   69    +4.30795E+03   +2.96386E+03   +1.52413E+02
   71    +3.91686E+03   +3.30829E+03   +1.30888E+02
   63    -3.50141E+03   -2.79253E+03   -1.44732E+02
   62    +3.62381E+03   +2.80746E+03   -1.33709E+02
   70    -4.30117E+03   -2.96178E+03   +1.48697E+02
   72    -3.91121E+03   -3.30365E+03   +1.25727E+02
   64    +3.49418E+03   +2.78757E+03   -1.44797E+02

Element # =    25     Typ = 8-K Hexaeder
Knoten       F(1)           F(2)           F(3)
    7    -3.52059E+02   +3.52059E+02   -5.00000E+02
   15    +8.85073E+01   +6.46595E+02   +2.78566E+02
   79    +6.89061E+02   +7.91946E+01   +2.47173E+02
   73    +3.50174E+02   -3.22035E+02   -6.23569E+02
    8    +2.71615E+02   -2.71615E+02   -1.36852E-04
   16    -8.47034E+01   -6.61135E+02   +3.63376E+02
   80    -7.00805E+02   -8.77385E+01   +3.34886E+02
   74    -2.61790E+02   +2.64674E+02   -1.00430E+02

Element # =    26     Typ = 8-K Hexaeder
Knoten       F(1)           F(2)           F(3)
   73    -3.50174E+02   +3.22035E+02   -3.76431E+02
   79    +1.39802E+02   +5.64571E+02   +2.39398E+02
   81    +6.08656E+02   +4.03343E+01   +1.58246E+02
   75    +2.10697E+02   -2.72587E+02   -5.44827E+02
   74    +2.61790E+02   -2.64674E+02   +1.00430E+02
   80    -1.20596E+02   -5.78148E+02   +3.23784E+02
   82    -6.20001E+02   -5.44313E+01   +2.35006E+02
   76    -1.30174E+02   +2.42901E+02   -1.35604E+02

Element # =    27     Typ = 8-K Hexaeder
Knoten       F(1)           F(2)           F(3)
   75    -2.10697E+02   +2.72587E+02   -4.55173E+02
   81    +2.30498E+02   +5.71126E+02   +2.53316E+02
   83    +4.06851E+02   +2.64476E+02   +2.76813E+02
   77    -3.45608E-11   -2.18279E-11   -1.00000E+03
   76    +1.30174E+02   -2.42901E+02   +1.35604E+02
   82    -1.72232E+02   -5.38737E+02   +3.42445E+02
   84    -3.84595E+02   -3.26552E+02   +4.46994E+02
   78    +1.45519E-11   +4.36557E-11   -2.91038E-11

Element # =    28     Typ = 8-K Hexaeder
Knoten       F(1)           F(2)           F(3)
   15    -6.59351E+02   -7.57519E+01   -2.78566E+02
   23    +4.85082E+02   +1.15111E+03   +2.98467E+02
   85    +1.02862E+03   +5.76228E+02   +3.25320E+02
   79    -1.76529E+02   -6.29315E+02   -2.43130E+02
   16    +6.99720E+02   +4.61192E+01   -3.63376E+02
   24    -4.61802E+02   -1.16289E+03   +2.84692E+02
   86    -1.04386E+03   -5.67555E+02   +3.10240E+02
   80    +1.28124E+02   +6.62051E+02   -3.33647E+02

Element # =    29     Typ = 8-K Hexaeder
Knoten       F(1)           F(2)           F(3)
   79    -6.52334E+02   -1.44503E+01   -2.43440E+02
   85    +3.87637E+02   +1.09275E+03   +2.14540E+02
   87    +7.69151E+02   +4.72816E+02   +2.42673E+02
   81    -3.47252E+02   -6.55298E+02   -1.23024E+02
   80    +6.93276E+02   +3.83597E+00   -3.25022E+02
   86    -3.45127E+02   -1.08614E+03   +2.00829E+02
   88    -7.63631E+02   -4.56789E+02   +2.25613E+02
   82    +2.58280E+02   +6.43278E+02   -1.92169E+02

Element # =    30     Typ = 8-K Hexaeder
Knoten       F(1)           F(2)           F(3)
   81    -4.91902E+02   +4.38382E+01   -2.88538E+02
   87    +3.26607E+02   +1.03446E+03   +2.50576E+02
   89    +4.60732E+02   +6.17254E+02   +4.70729E+02
   83    -4.06851E+02   -2.64476E+02   -2.76813E+02
   82    +5.33952E+02   -5.01102E+01   -3.85282E+02
   88    -3.29362E+02   -1.04657E+03   +2.35227E+02
   90    -4.77772E+02   -6.60944E+02   +4.41095E+02
   84    +3.84595E+02   +3.26552E+02   -4.46994E+02

Element # =    31     Typ = 8-K Hexaeder
Knoten       F(1)           F(2)           F(3)
   23    -1.08689E+03   -5.49303E+02   -2.98467E+02
   31    +8.87669E+02   +1.68549E+03   +2.66766E+02
   91    +1.44338E+03   +1.10052E+03   +2.97849E+02
   85    -5.14827E+02   -1.15003E+03   -2.81410E+02
   24    +1.09027E+03   +5.34420E+02   -2.84692E+02
   32    -8.69972E+02   -1.68083E+03   +2.70239E+02
   92    -1.43842E+03   -1.08588E+03   +2.99057E+02
   86    +4.88785E+02   +1.14560E+03   -2.69343E+02

Element # =    32     Typ = 8-K Hexaeder
Knoten       F(1)           F(2)           F(3)
   85    -9.01428E+02   -5.18950E+02   -2.58450E+02
   91    +6.35224E+02   +1.63590E+03   +1.99351E+02
   93    +1.00585E+03   +9.82012E+02   +2.09745E+02
   87    -5.13823E+02   -1.16384E+03   -1.68995E+02
   86    +9.00203E+02   +5.08094E+02   -2.41727E+02
   92    -6.27715E+02   -1.62730E+03   +2.03484E+02
   94    -1.00515E+03   -9.72498E+02   +2.11998E+02
   88    +5.06844E+02   +1.15658E+03   -1.55406E+02

Element # =    33     Typ = 8-K Hexaeder
Knoten       F(1)           F(2)           F(3)
   87    -5.81935E+02   -3.43435E+02   -3.24253E+02
   93    +4.89564E+02   +1.59268E+03   +2.77309E+02
   95    +6.12482E+02   +1.15185E+03   +4.87500E+02
   89    -4.60732E+02   -6.17254E+02   -4.70729E+02
   88    +5.86149E+02   +3.46781E+02   -3.05433E+02
   94    -5.01141E+02   -1.60777E+03   +2.80845E+02
   96    -6.22159E+02   -1.18379E+03   +4.95857E+02
   90    +4.77772E+02   +6.60944E+02   -4.41095E+02

Element # =    34     Typ = 8-K Hexaeder
Knoten       F(1)           F(2)           F(3)
   31    -1.52331E+03   -1.04985E+03   -2.66766E+02
   39    +1.29791E+03   +2.24750E+03   +2.42034E+02
   97    +1.87754E+03   +1.65209E+03   +2.83248E+02
   91    -9.02324E+02   -1.67994E+03   -2.53528E+02
   32    +1.51896E+03   +1.03184E+03   -2.70239E+02
   40    -1.28681E+03   -2.23609E+03   +2.40860E+02
   98    -1.87048E+03   -1.63700E+03   +2.81678E+02
   92    +8.88521E+02   +1.67145E+03   -2.57286E+02

Element # =    35     Typ = 8-K Hexaeder
Knoten       F(1)           F(2)           F(3)
   91    -1.17628E+03   -1.05648E+03   -2.43673E+02
   97    +9.06754E+02   +2.26205E+03   +1.92639E+02
   99    +1.27480E+03   +1.59265E+03   +2.13178E+02
   93    -7.75078E+02   -1.73242E+03   -1.61186E+02
   92    +1.17761E+03   +1.04173E+03   -2.45255E+02
   98    -9.08202E+02   -2.25489E+03   +1.91889E+02
  100    -1.27775E+03   -1.58549E+03   +2.13635E+02
   94    +7.78157E+02   +1.73286E+03   -1.61228E+02

Element # =    36     Typ = 8-K Hexaeder
Knoten       F(1)           F(2)           F(3)
   93    -7.20331E+02   -8.42272E+02   -3.25868E+02
   99    +6.62070E+02   +2.31138E+03   +2.99180E+02
  101    +7.67363E+02   +1.85780E+03   +5.21822E+02
   95    -6.12482E+02   -1.15185E+03   -4.87500E+02
   94    +7.28136E+02   +8.47413E+02   -3.31615E+02
  100    -6.71639E+02   -2.32592E+03   +2.97841E+02
  102    -7.75275E+02   -1.88034E+03   +5.21997E+02
   96    +6.22159E+02   +1.18379E+03   -4.95857E+02

Element # =    37     Typ = 8-K Hexaeder
Knoten       F(1)           F(2)           F(3)
   39    -1.97830E+03   -1.56710E+03   -2.42033E+02
   47    +1.69611E+03   +2.81541E+03   +2.09755E+02
  103    +2.31918E+03   +2.22475E+03   +2.60937E+02
   97    -1.29953E+03   -2.24169E+03   -2.29729E+02
   40    +1.97042E+03   +1.55248E+03   -2.40860E+02
   48    -1.68917E+03   -2.80339E+03   +2.09164E+02
  104    -2.31236E+03   -2.21242E+03   +2.60836E+02
   98    +1.29365E+03   +2.23196E+03   -2.28071E+02

Element # =    38     Typ = 8-K Hexaeder
Knoten       F(1)           F(2)           F(3)
   97    -1.48476E+03   -1.67245E+03   -2.46158E+02
  103    +1.17147E+03   +2.96815E+03   +1.78695E+02
  105    +1.56143E+03   +2.34210E+03   +2.24804E+02
   99    -1.06347E+03   -2.38838E+03   -1.59153E+02
   98    +1.48503E+03   +1.65993E+03   -2.45496E+02
  104    -1.17566E+03   -2.96257E+03   +1.77928E+02
  106    -1.56494E+03   -2.33726E+03   +2.26161E+02
  100    +1.07090E+03   +2.39047E+03   -1.56781E+02

Element # =    39     Typ = 8-K Hexaeder
Knoten       F(1)           F(2)           F(3)
   99    -8.73396E+02   -1.51566E+03   -3.53205E+02
  105    +8.25049E+02   +3.22761E+03   +3.21069E+02
  107    +9.26838E+02   +2.81068E+03   +5.54318E+02
  101    -7.67363E+02   -1.85780E+03   -5.21822E+02
  100    +8.78497E+02   +1.52095E+03   -3.54695E+02
  106    -8.32432E+02   -3.23934E+03   +3.20503E+02
  108    -9.32467E+02   -2.82678E+03   +5.55829E+02
  102    +7.75275E+02   +1.88034E+03   -5.21997E+02

Element # =    40     Typ = 8-K Hexaeder
Knoten       F(1)           F(2)           F(3)
   47    -2.40372E+03   -2.10780E+03   -2.09755E+02
   55    +2.09354E+03   +3.33363E+03   +1.76666E+02
  109    +2.71149E+03   +2.81604E+03   +2.29379E+02
  103    -1.70225E+03   -2.80069E+03   -1.96788E+02
   48    +2.39601E+03   +2.09655E+03   -2.09164E+02
   56    -2.08874E+03   -3.32328E+03   +1.75708E+02
  110    -2.70590E+03   -2.80669E+03   +2.29331E+02
  104    +1.69956E+03   +2.79225E+03   -1.95376E+02

Element # =    41     Typ = 8-K Hexaeder
Knoten       F(1)           F(2)           F(3)
  103    -1.78840E+03   -2.39221E+03   -2.42844E+02
  109    +1.44037E+03   +3.71737E+03   +1.66546E+02
  111    +1.85297E+03   +3.23995E+03   +2.29728E+02
  105    -1.36491E+03   -3.13043E+03   -1.53929E+02
  104    +1.78847E+03   +2.38273E+03   -2.43389E+02
  110    -1.44430E+03   -3.71323E+03   +1.65299E+02
  112    -1.85607E+03   -3.23694E+03   +2.30938E+02
  106    +1.37187E+03   +3.13276E+03   -1.52350E+02

Element # =    42     Typ = 8-K Hexaeder
Knoten       F(1)           F(2)           F(3)
  105    -1.02156E+03   -2.43927E+03   -3.91945E+02
  111    +9.63101E+02   +4.40900E+03   +3.45531E+02
  113    +1.05335E+03   +4.15993E+03   +6.02510E+02
  107    -9.26838E+02   -2.81068E+03   -5.54318E+02
  106    +1.02549E+03   +2.44384E+03   -3.94314E+02
  112    -9.68513E+02   -4.41809E+03   +3.44838E+02
  114    -1.05749E+03   -4.17150E+03   +6.03526E+02
  108    +9.32467E+02   +2.82678E+03   -5.55829E+02

Element # =    43     Typ = 8-K Hexaeder
Knoten       F(1)           F(2)           F(3)
   55    -2.71484E+03   -2.71233E+03   -1.76666E+02
   63    +2.56266E+03   +3.73128E+03   +1.44732E+02
  115    +2.96040E+03   +3.48292E+03   +1.96122E+02
  109    -2.15642E+03   -3.28579E+03   -1.66046E+02
   56    +2.70822E+03   +2.70380E+03   -1.75708E+02
   64    -2.55867E+03   -3.72308E+03   +1.44797E+02
  116    -2.95614E+03   -3.47580E+03   +1.96987E+02
  110    +2.15479E+03   +3.27899E+03   -1.64218E+02

Element # =    44     Typ = 8-K Hexaeder
Knoten       F(1)           F(2)           F(3)
  109    -1.99545E+03   -3.24762E+03   -2.29879E+02
  115    +1.76657E+03   +4.44567E+03   +1.44787E+02
  117    +1.98544E+03   +4.30256E+03   +2.24667E+02
  111    -1.70309E+03   -3.92642E+03   -1.39951E+02
  110    +1.99540E+03   +3.24093E+03   -2.30412E+02
  116    -1.76935E+03   -4.44277E+03   +1.43801E+02
  118    -1.98806E+03   -4.30100E+03   +2.25526E+02
  112    +1.70854E+03   +3.92866E+03   -1.38540E+02

Element # =    45     Typ = 8-K Hexaeder
Knoten       F(1)           F(2)           F(3)
  111    -1.11298E+03   -3.72253E+03   -4.35308E+02
  117    +1.07446E+03   +5.92473E+03   +3.90668E+02
  119    +1.22058E+03   +6.12526E+03   +6.49104E+02
  113    -1.05335E+03   -4.15993E+03   -6.02510E+02
  112    +1.11605E+03   +3.72637E+03   -4.37237E+02
  118    -1.07842E+03   -5.93188E+03   +3.89498E+02
  120    -1.22383E+03   -6.13352E+03   +6.49311E+02
  114    +1.05749E+03   +4.17150E+03   -6.03526E+02

Element # =    46     Typ = 8-K Hexaeder
Knoten       F(1)           F(2)           F(3)
   63    -2.79253E+03   -3.50141E+03   -1.44731E+02
   71    +3.30829E+03   +3.91686E+03   +1.30888E+02
  121    +2.96386E+03   +4.30794E+03   +1.52413E+02
  115    -2.80921E+03   -3.62899E+03   -1.34488E+02
   64    +2.78757E+03   +3.49418E+03   -1.44797E+02
   72    -3.30365E+03   -3.91121E+03   +1.25727E+02
  122    -2.96178E+03   -4.30117E+03   +1.48697E+02
  116    +2.80746E+03   +3.62381E+03   -1.33709E+02

Element # =    47     Typ = 8-K Hexaeder
Knoten       F(1)           F(2)           F(3)
  115    -1.91776E+03   -4.29960E+03   -2.06421E+02
  121    +2.46553E+03   +5.04646E+03   +1.55948E+02
  123    +1.95747E+03   +5.59996E+03   +2.05228E+02
  117    -2.23373E+03   -4.66962E+03   -1.54841E+02
  116    +1.91803E+03   +4.29476E+03   -2.07079E+02
  122    -2.46745E+03   -5.04460E+03   +1.54187E+02
  124    -1.95990E+03   -5.59926E+03   +2.06624E+02
  118    +2.23781E+03   +4.67190E+03   -1.53646E+02

Element # =    48     Typ = 8-K Hexaeder
Knoten       F(1)           F(2)           F(3)
  117    -8.26170E+02   -5.55766E+03   -4.60494E+02
  123    +1.63865E+03   +7.77422E+03   +4.46372E+02
  125    +8.55461E+02   +8.97675E+03   +6.60083E+02
  119    -1.22058E+03   -6.12526E+03   -6.49104E+02
  118    +8.28683E+02   +5.56098E+03   -4.61379E+02
  124    -1.64280E+03   -7.77996E+03   +4.49306E+02
  126    -8.57069E+02   -8.98259E+03   +6.64526E+02
  120    +1.22383E+03   +6.13352E+03   -6.49311E+02

Die aufsummierten Knotenkraefte je Knoten
-----------------------------------------

Knoten       F(1)           F(2)           F(3)           F(4)           F(5)           F(6)

    1    -2.67164E-11   +1.45519E-11   -1.00000E+03   +0.00000E+00   +0.00000E+00   +0.00000E+00
    2    -1.45519E-11   +3.63798E-12   -1.45519E-11   +0.00000E+00   +0.00000E+00   +0.00000E+00
    3    +6.91216E-11   +9.09495E-12   -1.00000E+03   +0.00000E+00   +0.00000E+00   +0.00000E+00
    4    +2.18279E-11   -2.18279E-11   +1.09139E-10   +0.00000E+00   +0.00000E+00   +0.00000E+00
    5    +6.91216E-11   +1.81899E-12   -1.00000E+03   +0.00000E+00   +0.00000E+00   +0.00000E+00
    6    -1.45519E-11   -3.63798E-11   -1.38243E-10   +0.00000E+00   +0.00000E+00   +0.00000E+00
    7    -3.63798E-11   +2.19416E-11   -1.00000E+03   +0.00000E+00   +0.00000E+00   +0.00000E+00
    8    +3.63798E-12   +2.60343E-11   +3.63798E-11   +0.00000E+00   +0.00000E+00   +0.00000E+00
    9    +5.92308E-11   +2.18279E-11   -1.74623E-10   +0.00000E+00   +0.00000E+00   +0.00000E+00
   10    +8.18545E-11   +4.54747E-11   +1.01863E-10   +0.00000E+00   +0.00000E+00   +0.00000E+00
   11    +1.27329E-10   +0.00000E+00   -8.00355E-11   +0.00000E+00   +0.00000E+00   +0.00000E+00
   12    +9.09495E-13   +4.54747E-13   +4.49290E-10   +0.00000E+00   +0.00000E+00   +0.00000E+00
   13    +2.18279E-11   -2.21689E-11   +5.82077E-11   +0.00000E+00   +0.00000E+00   +0.00000E+00
   14    -4.92264E-11   -5.70708E-11   +3.72893E-11   +0.00000E+00   +0.00000E+00   +0.00000E+00
   15    +1.09139E-11   +6.93490E-12   +5.09317E-11   +0.00000E+00   +0.00000E+00   +0.00000E+00
   16    -3.72893E-11   +4.54747E-12   +6.63931E-11   +0.00000E+00   +0.00000E+00   +0.00000E+00
   17    +8.85620E-11   -5.82077E-11   -4.36557E-11   +0.00000E+00   +0.00000E+00   +0.00000E+00
   18    -3.81988E-11   +9.09495E-12   -1.42791E-10   +0.00000E+00   +0.00000E+00   +0.00000E+00
   19    +2.36469E-11   -4.72937E-11   -1.81899E-10   +0.00000E+00   +0.00000E+00   +0.00000E+00
   20    -2.00089E-11   +2.54659E-11   +7.82165E-11   +0.00000E+00   +0.00000E+00   +0.00000E+00
   21    -4.72937E-11   -6.73026E-11   +1.30967E-10   +0.00000E+00   +0.00000E+00   +0.00000E+00
   22    +7.32143E-11   -1.86446E-11   +5.36602E-11   +0.00000E+00   +0.00000E+00   +0.00000E+00
   23    -1.09139E-10   -4.09273E-11   +2.25555E-10   +0.00000E+00   +0.00000E+00   +0.00000E+00
   24    -2.72848E-11   +4.86580E-11   +2.52840E-10   +0.00000E+00   +0.00000E+00   +0.00000E+00
   25    +2.02363E-11   -5.45697E-11   +5.09317E-11   +0.00000E+00   +0.00000E+00   +0.00000E+00
   26    -9.09495E-12   -2.72848E-11   +2.54659E-11   +0.00000E+00   +0.00000E+00   +0.00000E+00
   27    -4.18368E-11   +4.54747E-11   +5.82077E-11   +0.00000E+00   +0.00000E+00   +0.00000E+00
   28    +7.27596E-12   -2.81943E-11   -9.09495E-11   +0.00000E+00   +0.00000E+00   +0.00000E+00
   29    +5.27507E-11   -2.63753E-11   +2.47383E-10   +0.00000E+00   +0.00000E+00   +0.00000E+00
   30    +1.32786E-10   +8.27640E-11   +1.80080E-10   +0.00000E+00   +0.00000E+00   +0.00000E+00
   31    -8.54925E-11   -5.68434E-11   +1.60071E-10   +0.00000E+00   +0.00000E+00   +0.00000E+00
   32    -3.45608E-11   +6.09361E-11   +1.47338E-10   +0.00000E+00   +0.00000E+00   +0.00000E+00
   33    -1.13687E-11   +7.27596E-12   -2.91038E-11   +0.00000E+00   +0.00000E+00   +0.00000E+00
   34    +4.00178E-11   +5.18412E-11   +2.18279E-11   +0.00000E+00   +0.00000E+00   +0.00000E+00
   35    -7.27596E-12   -3.45608E-11   +8.73115E-11   +0.00000E+00   +0.00000E+00   +0.00000E+00
   36    -1.81899E-11   -3.04681E-11   -4.43833E-10   +0.00000E+00   +0.00000E+00   +0.00000E+00
   37    -5.82077E-11   +2.72848E-12   +8.00355E-11   +0.00000E+00   +0.00000E+00   +0.00000E+00
   38    +8.18545E-11   -1.86446E-11   -4.43833E-10   +0.00000E+00   +0.00000E+00   +0.00000E+00
   39    +1.81899E-12   -6.82121E-12   +1.09139E-10   +0.00000E+00   +0.00000E+00   +0.00000E+00
   40    -1.22782E-11   -8.18545E-12   +3.27418E-11   +0.00000E+00   +0.00000E+00   +0.00000E+00
   41    -1.81899E-11   +6.18456E-11   +1.81899E-10   +0.00000E+00   +0.00000E+00   +0.00000E+00
   42    +3.36513E-11   -1.27329E-11   +2.91038E-10   +0.00000E+00   +0.00000E+00   +0.00000E+00
   43    -8.45830E-11   +6.54836E-11   +3.85626E-10   +0.00000E+00   +0.00000E+00   +0.00000E+00
   44    -2.00089E-11   +4.59295E-11   -1.30967E-10   +0.00000E+00   +0.00000E+00   +0.00000E+00
   45    -6.54836E-11   +4.54747E-13   +1.30967E-10   +0.00000E+00   +0.00000E+00   +0.00000E+00
   46    +4.00178E-11   -7.27596E-12   -1.45519E-10   +0.00000E+00   +0.00000E+00   +0.00000E+00
   47    +3.81988E-11   +1.13687E-11   -1.60071E-10   +0.00000E+00   +0.00000E+00   +0.00000E+00
   48    +4.54747E-13   +1.36424E-11   +2.00089E-10   +0.00000E+00   +0.00000E+00   +0.00000E+00
   49    +1.54614E-11   -1.45519E-11   +1.81899E-10   +0.00000E+00   +0.00000E+00   +0.00000E+00
   50    +4.54747E-12   -1.56888E-11   +3.63798E-12   +0.00000E+00   +0.00000E+00   +0.00000E+00
   51    +3.77440E-11   -1.54614E-11   +5.09317E-11   +0.00000E+00   +0.00000E+00   +0.00000E+00
   52    -5.00222E-11   -2.36469E-11   +7.63976E-11   +0.00000E+00   +0.00000E+00   +0.00000E+00
   53    +3.04681E-11   +2.00089E-11   -3.27418E-10   +0.00000E+00   +0.00000E+00   +0.00000E+00
   54    -2.00089E-11   +2.72848E-12   -2.36469E-10   +0.00000E+00   +0.00000E+00   +0.00000E+00
   55    -3.31966E-11   -1.00044E-11   -2.98314E-10   +0.00000E+00   +0.00000E+00   +0.00000E+00
   56    +2.13731E-11   +1.81899E-12   -1.78261E-10   +0.00000E+00   +0.00000E+00   +0.00000E+00
   57    -8.18545E-12   +9.09495E-12   +4.72937E-11   +0.00000E+00   +0.00000E+00   +0.00000E+00
   58    +1.00044E-11   +1.81899E-12   +1.09139E-11   +0.00000E+00   +0.00000E+00   +0.00000E+00
   59    -6.36646E-12   -5.45697E-12   -8.36735E-11   +0.00000E+00   +0.00000E+00   +0.00000E+00
   60    -9.09495E-13   +1.00044E-11   -2.36469E-11   +0.00000E+00   +0.00000E+00   +0.00000E+00
   61    -2.27374E-11   +0.00000E+00   +5.45697E-12   +0.00000E+00   +0.00000E+00   +0.00000E+00
   62    +4.09273E-12   -1.09139E-11   +4.91127E-11   +0.00000E+00   +0.00000E+00   +0.00000E+00
   63    -1.36424E-11   -1.09139E-11   +0.00000E+00   +0.00000E+00   +0.00000E+00   +0.00000E+00
   64    +1.68257E-11   +1.18234E-11   -3.63798E-12   +0.00000E+00   +0.00000E+00   +0.00000E+00
   65    +8.97674E+03   +8.55461E+02   +6.60083E+02   +0.00000E+00   +0.00000E+00   +0.00000E+00
   66    -8.98258E+03   -8.57069E+02   +6.64526E+02   +0.00000E+00   +0.00000E+00   +0.00000E+00
   67    +1.33742E+04   +3.59612E+03   +6.51600E+02   +0.00000E+00   +0.00000E+00   +0.00000E+00
   68    -1.33792E+04   -3.60270E+03   +6.55930E+02   +0.00000E+00   +0.00000E+00   +0.00000E+00
   69    +9.35441E+03   +5.42939E+03   +3.08361E+02   +0.00000E+00   +0.00000E+00   +0.00000E+00
   70    -9.34577E+03   -5.42924E+03   +3.02885E+02   +0.00000E+00   +0.00000E+00   +0.00000E+00
   71    +7.22514E+03   +7.22514E+03   +2.61777E+02   +0.00000E+00   +0.00000E+00   +0.00000E+00
   72    -7.21487E+03   -7.21487E+03   +2.51453E+02   +0.00000E+00   +0.00000E+00   +0.00000E+00
   73    +5.45697E-11   -2.27374E-11   -1.00000E+03   +0.00000E+00   +0.00000E+00   +0.00000E+00
   74    -8.91305E-11   +1.45519E-11   -1.09139E-10   +0.00000E+00   +0.00000E+00   +0.00000E+00
   75    +3.63798E-12   +6.18456E-11   -1.00000E+03   +0.00000E+00   +0.00000E+00   +0.00000E+00
   76    +5.91172E-11   -1.45519E-11   -1.16415E-10   +0.00000E+00   +0.00000E+00   +0.00000E+00
   77    -3.45608E-11   -2.18279E-11   -1.00000E+03   +0.00000E+00   +0.00000E+00   +0.00000E+00
   78    +1.45519E-11   +4.36557E-11   -2.91038E-11   +0.00000E+00   +0.00000E+00   +0.00000E+00
   79    +1.52795E-10   -2.11003E-10   +4.43833E-10   +0.00000E+00   +0.00000E+00   +0.00000E+00
   80    -1.79625E-10   +4.45652E-11   +1.03228E-09   +0.00000E+00   +0.00000E+00   +0.00000E+00
   81    +4.36557E-11   -6.91216E-11   +7.27596E-12   +0.00000E+00   +0.00000E+00   +0.00000E+00
   82    +6.36646E-12   -1.19144E-10   -4.72937E-11   +0.00000E+00   +0.00000E+00   +0.00000E+00
   83    +6.54836E-11   +2.72848E-11   +1.45519E-10   +0.00000E+00   +0.00000E+00   +0.00000E+00
   84    -2.54659E-11   -2.18279E-11   -3.31056E-10   +0.00000E+00   +0.00000E+00   +0.00000E+00
   85    -2.91038E-11   -1.86446E-10   +5.96629E-10   +0.00000E+00   +0.00000E+00   +0.00000E+00
   86    -3.77440E-11   -1.99179E-10   +4.27463E-10   +0.00000E+00   +0.00000E+00   +0.00000E+00
   87    +4.36557E-11   -2.54659E-11   +7.27596E-12   +0.00000E+00   +0.00000E+00   +0.00000E+00
   88    -7.27596E-12   -6.00267E-11   -3.00133E-11   +0.00000E+00   +0.00000E+00   +0.00000E+00
   89    +3.72893E-11   -7.27596E-12   -1.16415E-10   +0.00000E+00   +0.00000E+00   +0.00000E+00
   90    +8.00355E-11   +1.09139E-10   +2.91038E-11   +0.00000E+00   +0.00000E+00   +0.00000E+00
   91    -8.54925E-11   +6.95763E-11   +2.83762E-10   +0.00000E+00   +0.00000E+00   +0.00000E+00
   92    +6.23004E-11   -3.45608E-11   -6.67569E-10   +0.00000E+00   +0.00000E+00   +0.00000E+00
   93    -3.09228E-11   -6.00267E-11   -3.34694E-10   +0.00000E+00   +0.00000E+00   +0.00000E+00
   94    +5.45697E-12   -1.40062E-10   +2.03727E-10   +0.00000E+00   +0.00000E+00   +0.00000E+00
   95    +8.27640E-11   -3.45608E-11   +1.01863E-10   +0.00000E+00   +0.00000E+00   +0.00000E+00
   96    -3.63798E-12   -8.36735E-11   -4.36557E-11   +0.00000E+00   +0.00000E+00   +0.00000E+00
   97    +5.09317E-11   -5.45697E-12   +8.80391E-10   +0.00000E+00   +0.00000E+00   +0.00000E+00
   98    -7.95808E-11   -4.54747E-12   +4.00178E-11   +0.00000E+00   +0.00000E+00   +0.00000E+00
   99    +1.81899E-12   +1.32786E-10   +2.18279E-10   +0.00000E+00   +0.00000E+00   +0.00000E+00
  100    -4.82032E-11   +1.63709E-11   +5.09317E-11   +0.00000E+00   +0.00000E+00   +0.00000E+00
  101    +1.54614E-11   +3.09228E-11   -1.45519E-11   +0.00000E+00   +0.00000E+00   +0.00000E+00
  102    +5.45697E-11   +1.81899E-11   +1.89175E-10   +0.00000E+00   +0.00000E+00   +0.00000E+00
  103    +8.18545E-12   +2.00089E-11   -4.65661E-10   +0.00000E+00   +0.00000E+00   +0.00000E+00
  104    +5.59339E-11   +4.00178E-11   -4.72937E-10   +0.00000E+00   +0.00000E+00   +0.00000E+00
  105    -2.00089E-11   +4.77485E-11   -4.36557E-11   +0.00000E+00   +0.00000E+00   +0.00000E+00
  106    -2.72848E-11   +1.27329E-11   -7.27596E-12   +0.00000E+00   +0.00000E+00   +0.00000E+00
  107    -1.00044E-11   +3.09228E-11   -1.60071E-10   +0.00000E+00   +0.00000E+00   +0.00000E+00
  108    -1.45519E-11   -2.72848E-11   -1.60071E-10   +0.00000E+00   +0.00000E+00   +0.00000E+00
  109    +6.73026E-11   -6.00267E-11   -2.91038E-11   +0.00000E+00   +0.00000E+00   +0.00000E+00
  110    -2.13731E-11   +5.91172E-11   +3.63798E-12   +0.00000E+00   +0.00000E+00   +0.00000E+00
  111    +1.54614E-11   -2.00089E-11   +1.89175E-10   +0.00000E+00   +0.00000E+00   +0.00000E+00
  112    -2.97860E-11   +1.81899E-12   +7.27596E-12   +0.00000E+00   +0.00000E+00   +0.00000E+00
  113    -3.18323E-12   -4.63842E-11   -2.47383E-10   +0.00000E+00   +0.00000E+00   +0.00000E+00
  114    +1.45519E-11   +2.72848E-11   +1.45519E-11   +0.00000E+00   +0.00000E+00   +0.00000E+00
  115    +7.27596E-12   +6.36646E-12   +2.25555E-10   +0.00000E+00   +0.00000E+00   +0.00000E+00
  116    +2.25100E-11   -2.63753E-11   -2.54659E-11   +0.00000E+00   +0.00000E+00   +0.00000E+00
  117    +4.54747E-12   -1.63709E-11   -8.36735E-11   +0.00000E+00   +0.00000E+00   +0.00000E+00
  118    -6.48015E-12   -9.09495E-12   -7.63976E-11   +0.00000E+00   +0.00000E+00   +0.00000E+00
  119    +2.50111E-12   -1.09139E-11   -1.45519E-11   +0.00000E+00   +0.00000E+00   +0.00000E+00
  120    +7.27596E-12   -9.09495E-13   -2.91038E-11   +0.00000E+00   +0.00000E+00   +0.00000E+00
  121    +5.42939E+03   +9.35441E+03   +3.08361E+02   +0.00000E+00   +0.00000E+00   +0.00000E+00
  122    -5.42923E+03   -9.34577E+03   +3.02885E+02   +0.00000E+00   +0.00000E+00   +0.00000E+00
  123    +3.59612E+03   +1.33742E+04   +6.51600E+02   +0.00000E+00   +0.00000E+00   +0.00000E+00
  124    -3.60270E+03   -1.33792E+04   +6.55930E+02   +0.00000E+00   +0.00000E+00   +0.00000E+00
  125    +8.55461E+02   +8.97675E+03   +6.60083E+02   +0.00000E+00   +0.00000E+00   +0.00000E+00
  126    -8.57069E+02   -8.98259E+03   +6.64526E+02   +0.00000E+00   +0.00000E+00   +0.00000E+00
