Ausgabedatei Z88O2.TXT: Verschiebungen, erzeugt mit Z88R V14OS
                        **************
Lastfall: 1
Knoten         U(1)              U(2)              U(3)              U(4)              U(5)              U(6)

     1    +6.9895844E-02    -6.5164520E-01
     2    +4.7637920E-02    -6.6543808E-01
     3    +2.6465961E-02    -6.7883766E-01
     4    +5.9928299E-03    -6.9135581E-01
     5    -1.3736647E-02    -7.0315153E-01
     6    -3.2170165E-02    -7.1330990E-01
     7    -4.8838969E-02    -7.2227344E-01
     8    +8.5045666E-02    -6.0063451E-01
     9    +3.7668493E-02    -6.1993785E-01
    10    -6.9039415E-03    -6.3799123E-01
    11    -4.9026726E-02    -6.5432645E-01
    12    +9.8210177E-02    -5.4697783E-01
    13    +7.3102234E-02    -5.5326359E-01
    14    +4.8535844E-02    -5.5944281E-01
    15    +2.4432731E-02    -5.6530057E-01
    16    +7.3620666E-04    -5.7086771E-01
    17    -2.2918050E-02    -5.7585123E-01
    18    -4.6715488E-02    -5.8057126E-01
    19    +1.0861491E-01    -4.9394147E-01
    20    +5.8503729E-02    -5.0053112E-01
    21    +8.8423732E-03    -5.0687454E-01
    22    -3.9905357E-02    -5.1269524E-01
    23    +1.1664451E-01    -4.4297392E-01
    24    +9.2403024E-02    -4.4397374E-01
    25    +6.7457863E-02    -4.4514463E-01
    26    +4.2564538E-02    -4.4648275E-01
    27    +1.7621899E-02    -4.4799443E-01
    28    -6.9738453E-03    -4.4951407E-01
    29    -3.1550103E-02    -4.5104121E-01
    30    +1.2323599E-01    -3.9565956E-01
    31    +7.5172882E-02    -3.9450223E-01
    32    +2.6589962E-02    -3.9393208E-01
    33    -2.1844727E-02    -3.9537135E-01
    34    +1.3017553E-01    -3.5231786E-01
    35    +1.0548901E-01    -3.5077849E-01
    36    +8.1022090E-02    -3.4897016E-01
    37    +5.6949194E-02    -3.4706424E-01
    38    +3.3469027E-02    -3.4542099E-01
    39    +1.1497021E-02    -3.4410247E-01
    40    -9.4292166E-03    -3.4416144E-01
    41    +1.1526790E-01    -3.0603698E-01
    42    +6.9768874E-02    -3.1431461E-01
    43    +2.6235764E-02    -3.2232743E-01
    44    -1.1932598E-02    -3.3088264E-01
    45    +9.8016869E-02    -2.6974434E-01
    46    +7.7833015E-02    -2.7806116E-01
    47    +5.7682924E-02    -2.8645534E-01
    48    +3.7661792E-02    -2.9492979E-01
    49    +1.8134501E-02    -3.0333825E-01
    50    -5.8018675E-04    -3.1187714E-01
    51    -1.5273140E-02    -3.1984209E-01
    52    +8.0614505E-02    -2.4168543E-01
    53    +4.4927138E-02    -2.6449414E-01
    54    +9.1171594E-03    -2.8808280E-01
    55    -2.0132756E-02    -3.1054688E-01
    56    +6.3169015E-02    -2.1956484E-01
    57    +4.7454111E-02    -2.3308779E-01
    58    +3.1586026E-02    -2.4694044E-01
    59    +1.5438352E-02    -2.6116824E-01
    60    -3.9238510E-04    -2.7563723E-01
    61    -1.4785162E-02    -2.8989261E-01
    62    -2.5921438E-02    -3.0245739E-01
    63    +4.5159751E-02    -2.0236637E-01
    64    +1.7767805E-02    -2.3291924E-01
    65    -1.0319862E-02    -2.6553509E-01
    66    -3.2482506E-02    -2.9562004E-01
    67    +2.6199759E-02    -1.8909779E-01
    68    +1.5728204E-02    -2.0462718E-01
    69    +3.9381035E-03    -2.2172509E-01
    70    -8.6045261E-03    -2.3952699E-01
    71    -2.0760478E-02    -2.5739453E-01
    72    -3.1501222E-02    -2.7471604E-01
    73    -3.9709784E-02    -2.8977078E-01
    74    +2.5955115E-04    -1.8713467E-01
    75    -1.8154194E-02    -2.1967980E-01
    76    -3.6472599E-02    -2.5324827E-01
    77    -4.9779301E-02    -2.8296453E-01
    78    -2.3877464E-02    -1.8626414E-01
    79    -3.0807710E-02    -2.0201544E-01
    80    -3.7825882E-02    -2.1802694E-01
    81    -4.4683248E-02    -2.3409427E-01
    82    -5.0884311E-02    -2.4977993E-01
    83    -5.5965224E-02    -2.6450213E-01
    84    -5.9866225E-02    -2.7774624E-01
    85    -4.5865293E-02    -1.8574863E-01
    86    -5.5957144E-02    -2.1687135E-01
    87    -6.4538843E-02    -2.4701087E-01
    88    -6.9752823E-02    -2.7385197E-01
    89    -6.6972110E-02    -1.8542285E-01
    90    -7.0142694E-02    -2.0089825E-01
    91    -7.2996480E-02    -2.1605667E-01
    92    -7.5620019E-02    -2.3079262E-01
    93    -7.7663757E-02    -2.4499068E-01
    94    -7.9029851E-02    -2.5846146E-01
    95    -7.9593721E-02    -2.7106462E-01
    96    -8.7426045E-02    -1.8532398E-01
    97    -8.9386257E-02    -2.1565250E-01
    98    -9.0336390E-02    -2.4368948E-01
    99    -8.9282402E-02    -2.6907926E-01
   100    -1.0841360E-01    -1.8485296E-01
   101    -1.0641230E-01    -2.0079643E-01
   102    -1.0481171E-01    -2.1560555E-01
   103    -1.0358243E-01    -2.2962320E-01
   104    -1.0235964E-01    -2.4312428E-01
   105    -1.0086946E-01    -2.5587681E-01
   106    -9.8826886E-02    -2.6783510E-01
   107    -1.3169992E-01    -2.0112032E-01
   108    -1.2312558E-01    -2.2463077E-01
   109    -1.1485781E-01    -2.4703119E-01
   110    -1.0601805E-01    -2.6745476E-01
   111    -1.4684831E-01    -2.1587560E-01
   112    -1.4131884E-01    -2.2459204E-01
   113    -1.3555290E-01    -2.3363398E-01
   114    -1.2981944E-01    -2.4256667E-01
   115    -1.2415818E-01    -2.5129539E-01
   116    -1.1842701E-01    -2.5960530E-01
   117    -1.1212544E-01    -2.6752946E-01
   118    -1.5649658E-01    -2.2919128E-01
   119    -1.4355969E-01    -2.4248861E-01
   120    -1.3054776E-01    -2.5576986E-01
   121    -1.1719877E-01    -2.6784613E-01
   122    -1.6171789E-01    -2.4209688E-01
   123    -1.5497641E-01    -2.4664868E-01
   124    -1.4820434E-01    -2.5123488E-01
   125    -1.4137578E-01    -2.5579610E-01
   126    -1.3456976E-01    -2.6036237E-01
   127    -1.2811965E-01    -2.6468099E-01
   128    -1.2128048E-01    -2.6843725E-01
   129    -1.6311419E-01    -2.5475652E-01
   130    -1.5002902E-01    -2.5979901E-01
   131    -1.3680198E-01    -2.6478679E-01
   132    -1.2467105E-01    -2.6914181E-01
   133    -1.6134791E-01    -2.6701415E-01
   134    -1.5549572E-01    -2.6761683E-01
   135    -1.4958928E-01    -2.6814139E-01
   136    -1.4356786E-01    -2.6865880E-01
   137    -1.3756408E-01    -2.6899612E-01
   138    -1.3159015E-01    -2.6963751E-01
   139    -1.2716572E-01    -2.6969510E-01
   140    -1.5843100E-01    -2.7248477E-01
   141    -1.4775201E-01    -2.7405643E-01
   142    -1.3701032E-01    -2.7471438E-01
   143    -1.2765826E-01    -2.7342666E-01
   144    -1.5573048E-01    -2.7784618E-01
   145    -1.5107856E-01    -2.7895374E-01
   146    -1.4634273E-01    -2.7989591E-01
   147    -1.4161679E-01    -2.8071619E-01
   148    -1.3697841E-01    -2.8140966E-01
   149    -1.3235468E-01    -2.8252807E-01
   150    -1.2717313E-01    -2.8390811E-01
   151    -1.5346413E-01    -2.8342056E-01
   152    -1.4511072E-01    -2.8634711E-01
   153    -1.3645716E-01    -2.8953773E-01
   154    -1.2725492E-01    -2.9324945E-01
   155    -1.5148415E-01    -2.8962549E-01
   156    -1.4771482E-01    -2.9146735E-01
   157    -1.4381211E-01    -2.9343142E-01
   158    -1.3985351E-01    -2.9543468E-01
   159    -1.3577833E-01    -2.9760445E-01
   160    -1.3158544E-01    -2.9986905E-01
   161    -1.2751866E-01    -3.0210847E-01
   162    -1.4952406E-01    -2.9646238E-01
   163    -1.4250978E-01    -3.0082315E-01
   164    -1.3515084E-01    -3.0566643E-01
   165    -1.2766124E-01    -3.1081558E-01
   166    -1.4747954E-01    -3.0375026E-01
   167    -1.4438185E-01    -3.0605216E-01
   168    -1.4121721E-01    -3.0849062E-01
   169    -1.3795663E-01    -3.1106827E-01
   170    -1.3464485E-01    -3.1372568E-01
   171    -1.3131447E-01    -3.1653299E-01
   172    -1.2784460E-01    -3.1952806E-01
   173    +1.4717690E-02    -1.5748542E-01
   174    -1.8518072E-02    -1.5403047E-01
   175    -5.2168199E-02    -1.5267892E-01
   176    -8.7455243E-02    -1.5088053E-01
   177    +1.5138805E-02    -1.3587204E-01
   178    +2.0117492E-03    -1.3149295E-01
   179    -1.1996643E-02    -1.2741145E-01
   180    -2.5958529E-02    -1.2342261E-01
   181    -4.0400560E-02    -1.1963684E-01
   182    -5.5021935E-02    -1.1613817E-01
   183    -7.0364953E-02    -1.1276138E-01
   184    +1.7505352E-02    -1.0140393E-01
   185    -5.9604776E-03    -9.3512171E-02
   186    -3.0283381E-02    -8.6689965E-02
   187    -5.5441749E-02    -8.0959339E-02
   188    +1.8636658E-02    -7.1517568E-02
   189    +8.6802676E-03    -6.8012642E-02
   190    -1.2008061E-03    -6.4760484E-02
   191    -1.1277599E-02    -6.1801596E-02
   192    -2.1384853E-02    -5.9142284E-02
   193    -3.1735885E-02    -5.6743560E-02
   194    -4.1999327E-02    -5.4686413E-02
   195    +1.8232040E-02    -4.6851847E-02
   196    +2.2865731E-03    -4.1233797E-02
   197    -1.3789364E-02    -3.6787324E-02
   198    -3.0135323E-02    -3.3556051E-02
   199    +1.6455604E-02    -2.7394430E-02
   200    +1.0525226E-02    -2.4994515E-02
   201    +4.6129107E-03    -2.2931193E-02
   202    -1.3895600E-03    -2.1168120E-02
   203    -7.4715315E-03    -1.9714816E-02
   204    -1.3255437E-02    -1.8432660E-02
   205    -1.9510501E-02    -1.7426581E-02
   206    +1.3211747E-02    -1.3411924E-02
   207    +5.5143603E-03    -1.0100650E-02
   208    -2.0522523E-03    -7.6285300E-03
   209    -9.7978731E-03    -6.4729458E-03
   210    +9.1071426E-03    -5.1595397E-03
   211    +7.2522641E-03    -4.0409260E-03
   212    +5.0569467E-03    -3.0056898E-03
   213    +2.7208404E-03    -1.9906845E-03
   214    +6.3639356E-04    -1.1108258E-03
   215    -2.8542156E-04    -3.5066070E-04
   216    +0.0000000E+00    +0.0000000E+00
   217    +5.6690390E-03    -1.6917750E-03
   218    +3.7908750E-03    -6.1216189E-04
   219    +1.3715204E-03    -3.0030711E-05
   220    +0.0000000E+00    +0.0000000E+00
   221    +3.3102632E-03    -6.9116086E-04
   222    +3.1716120E-03    -4.8645448E-04
   223    +2.6788137E-03    -2.8842561E-04
   224    +2.0077921E-03    -1.0191694E-04
   225    +1.2710994E-03    -1.4308811E-05
   226    +6.8843547E-04    -3.6813329E-05
   227    +0.0000000E+00    +0.0000000E+00
   228    +2.1870673E-03    -5.1497751E-04
   229    +1.8805508E-03    -2.6635101E-04
   230    +1.0388590E-03    -8.7777818E-05
   231    +0.0000000E+00    +0.0000000E+00
   232    +1.6856277E-03    -4.1360766E-04
   233    +1.5932357E-03    -3.5602102E-04
   234    +1.4043346E-03    -2.6989534E-04
   235    +1.1232400E-03    -1.8707014E-04
   236    +7.8618333E-04    -9.5840219E-05
   237    +3.9070822E-04    -2.9862778E-05
   238    +0.0000000E+00    +0.0000000E+00
   239    +1.5716606E-03    -2.3888710E-04
   240    +1.2050473E-03    -1.3601056E-04
   241    +6.1115226E-04    -4.4687255E-05
   242    +0.0000000E+00    +0.0000000E+00
   243    +1.6808949E-03    +1.4410420E-04
   244    +1.4786274E-03    +2.0434313E-04
   245    +1.2519300E-03    +2.5502112E-04
   246    +9.9028776E-04    +2.8073349E-04
   247    +6.9287020E-04    +2.6904136E-04
   248    +3.3888794E-04    +1.5327640E-04
   249    +0.0000000E+00    +0.0000000E+00
